Exercise 3-02
…
Penguins Dataset

# We use two dimensions of the penguins dataset for visualization
set.seed(1000)
data("penguins")
penguins <- as_tibble(penguins) |>
  drop_na()

x <- penguins |> dplyr::select(bill_length_mm, bill_depth_mm, species)
x

# A tibble: 333 × 3
   bill_length_mm bill_depth_mm species
            <dbl>         <dbl> <fct>  
 1           39.1          18.7 Adelie 
 2           39.5          17.4 Adelie 
 3           40.3          18   Adelie 
 4           36.7          19.3 Adelie 
 5           39.3          20.6 Adelie 
 6           38.9          17.8 Adelie 
 7           39.2          19.6 Adelie 
 8           41.1          17.6 Adelie 
 9           38.6          21.2 Adelie 
10           34.6          21.1 Adelie 
# ℹ 323 more rows
…
Circle Dataset

set.seed(1000)

x <- mlbench::mlbench.circle(500)
x <- cbind(as.data.frame(x$x), factor(x$classes))
colnames(x) <- c("x", "y", "class")
x <- as_tibble(x)
x

# A tibble: 500 × 3
         x       y class
     <dbl>   <dbl> <fct>
 1 -0.344   0.448  1    
 2  0.518   0.915  2    
 3 -0.772  -0.0913 1    
 4  0.382   0.412  1    
 5  0.0328  0.438  1    
 6 -0.865  -0.354  2    
 7  0.477   0.640  2    
 8  0.167  -0.809  2    
 9 -0.568  -0.281  1    
10 -0.488   0.638  2    
# ℹ 490 more rows
…
